<?xml version="1.0" encoding="UTF-8"?>
<svg width="45px" height="45px" viewBox="0 0 45 45" version="1.1" xmlns="http://www.w3.org/2000/svg" xmlns:xlink="http://www.w3.org/1999/xlink">
    <!-- Generator: Sketch 49.3 (51167) - http://www.bohemiancoding.com/sketch -->
    <title>Fill 14</title>
    <desc>Created with Sketch.</desc>
    <defs></defs>
    <g id="Page-1" stroke="none" stroke-width="1" fill="none" fill-rule="evenodd">
        <g id="Services" transform="translate(-40.000000, -1275.000000)" fill="#FFFFFF">
            <g id="Group" transform="translate(0.000000, 1238.000000)">
                <path d="M74.8941334,75.2952148 L74.8941334,50.6851211 C74.8941334,50.2973247 74.6572935,49.950038 74.2982676,49.8103637 C73.9388233,49.6715335 73.5325132,49.770276 73.2751695,50.057642 L51.9645995,73.8853912 L51.9645995,52.8334037 L60.4297431,60.7606549 L61.694284,59.3875433 L51.6675036,49.9985653 C51.3967696,49.7449574 51.0025944,49.6770192 50.6640723,49.8263989 C50.3255503,49.9753566 50.106285,50.3125158 50.106285,50.6851211 L50.106285,75.4952317 C45.3690685,71.8810026 42.364633,66.1982446 42.364633,59.6901004 C42.364633,48.4937969 51.397188,39.3841674 62.5002092,39.3841674 C73.7911122,39.3841674 82.6357854,48.1368048 82.6357854,59.3094776 C82.6357854,65.794413 79.6016403,71.5750696 74.8941334,75.2952148 Z M55.5577873,78.4410499 L73.0362373,59.3360621 L73.0362373,76.60503 C69.9690351,78.5119419 66.3603649,79.6149886 62.5002092,79.6149886 C60.0485396,79.6149886 57.7131978,79.2014516 55.5577873,78.4410499 Z M73.0362373,56.5729597 L53.7183028,77.6890877 C53.1157419,77.4063634 52.5307557,77.0957887 51.9645995,76.7577855 L51.9645995,76.6700143 C51.9851034,76.6506034 52.0081178,76.6341463 52.0273663,76.6122036 L73.0362373,53.1224576 L73.0362373,56.5729597 Z M78.3998661,43.4448477 C74.1748263,39.2888007 68.5283287,37 62.5002092,37 C50.0933132,37 40,47.1784961 40,59.6901004 C40,65.7332264 42.3441292,71.3670352 46.6001339,75.5543084 C50.8251737,79.7107773 56.4716713,82 62.5002092,82 C74.9066868,82 85,71.8210819 85,59.3094776 C85,53.2663516 82.6562892,47.6325428 78.3998661,43.4448477 Z" id="Fill-14"></path>
            </g>
        </g>
    </g>
</svg>