<?xml version="1.0" encoding="UTF-8"?>
<svg width="22px" height="21px" viewBox="0 0 22 21" version="1.1" xmlns="http://www.w3.org/2000/svg" xmlns:xlink="http://www.w3.org/1999/xlink">
    <!-- Generator: Sketch 49.3 (51167) - http://www.bohemiancoding.com/sketch -->
    <title>Combined Shape</title>
    <desc>Created with Sketch.</desc>
    <defs></defs>
    <g id="Page-1" stroke="none" stroke-width="1" fill="none" fill-rule="evenodd">
        <g id="Moxe-Hub-v2-Copy" transform="translate(-150.000000, -59.000000)" fill="#96822F">
            <g id="Cover-#2-Copy">
                <g id="Header" transform="translate(150.000000, 57.000000)">
                    <g id="Menu">
                        <path d="M1.5,2 L20.5,2 C21.3284271,2 22,2.67157288 22,3.5 C22,4.32842712 21.3284271,5 20.5,5 L1.5,5 C0.671572875,5 1.01453063e-16,4.32842712 0,3.5 C-1.01453063e-16,2.67157288 0.671572875,2 1.5,2 Z M1.5,11 L20.5,11 C21.3284271,11 22,11.6715729 22,12.5 C22,13.3284271 21.3284271,14 20.5,14 L1.5,14 C0.671572875,14 1.01453063e-16,13.3284271 0,12.5 C-1.01453063e-16,11.6715729 0.671572875,11 1.5,11 Z M1.5,20 L20.5,20 C21.3284271,20 22,20.6715729 22,21.5 C22,22.3284271 21.3284271,23 20.5,23 L1.5,23 C0.671572875,23 1.01453063e-16,22.3284271 0,21.5 C-1.01453063e-16,20.6715729 0.671572875,20 1.5,20 Z" id="Combined-Shape"></path>
                    </g>
                </g>
            </g>
        </g>
    </g>
</svg>